[
  {
    "__docId__": 1,
    "kind": "external",
    "name": "Infinity",
    "externalLink": "https://developer.mozilla.org/en-US/docs/Web/JavaScript/Reference/Global_Objects/Infinity",
    "memberof": "src/.external-ecmascript.js",
    "static": true,
    "longname": "src/.external-ecmascript.js~Infinity",
    "access": "public",
    "description": "",
    "builtinExternal": true
  },
  {
    "__docId__": 2,
    "kind": "external",
    "name": "NaN",
    "externalLink": "https://developer.mozilla.org/en-US/docs/Web/JavaScript/Reference/Global_Objects/NaN",
    "memberof": "src/.external-ecmascript.js",
    "static": true,
    "longname": "src/.external-ecmascript.js~NaN",
    "access": "public",
    "description": "",
    "builtinExternal": true
  },
  {
    "__docId__": 3,
    "kind": "external",
    "name": "undefined",
    "externalLink": "https://developer.mozilla.org/en-US/docs/Web/JavaScript/Reference/Global_Objects/undefined",
    "memberof": "src/.external-ecmascript.js",
    "static": true,
    "longname": "src/.external-ecmascript.js~undefined",
    "access": "public",
    "description": "",
    "builtinExternal": true
  },
  {
    "__docId__": 4,
    "kind": "external",
    "name": "null",
    "externalLink": "https://developer.mozilla.org/en-US/docs/Web/JavaScript/Reference/Global_Objects/null",
    "memberof": "src/.external-ecmascript.js",
    "static": true,
    "longname": "src/.external-ecmascript.js~null",
    "access": "public",
    "description": "",
    "builtinExternal": true
  },
  {
    "__docId__": 5,
    "kind": "external",
    "name": "Object",
    "externalLink": "https://developer.mozilla.org/en-US/docs/Web/JavaScript/Reference/Global_Objects/Object",
    "memberof": "src/.external-ecmascript.js",
    "static": true,
    "longname": "src/.external-ecmascript.js~Object",
    "access": "public",
    "description": "",
    "builtinExternal": true
  },
  {
    "__docId__": 6,
    "kind": "external",
    "name": "object",
    "externalLink": "https://developer.mozilla.org/en-US/docs/Web/JavaScript/Reference/Global_Objects/Object",
    "memberof": "src/.external-ecmascript.js",
    "static": true,
    "longname": "src/.external-ecmascript.js~object",
    "access": "public",
    "description": "",
    "builtinExternal": true
  },
  {
    "__docId__": 7,
    "kind": "external",
    "name": "Function",
    "externalLink": "https://developer.mozilla.org/en-US/docs/Web/JavaScript/Reference/Global_Objects/Function",
    "memberof": "src/.external-ecmascript.js",
    "static": true,
    "longname": "src/.external-ecmascript.js~Function",
    "access": "public",
    "description": "",
    "builtinExternal": true
  },
  {
    "__docId__": 8,
    "kind": "external",
    "name": "function",
    "externalLink": "https://developer.mozilla.org/en-US/docs/Web/JavaScript/Reference/Global_Objects/Function",
    "memberof": "src/.external-ecmascript.js",
    "static": true,
    "longname": "src/.external-ecmascript.js~function",
    "access": "public",
    "description": "",
    "builtinExternal": true
  },
  {
    "__docId__": 9,
    "kind": "external",
    "name": "Boolean",
    "externalLink": "https://developer.mozilla.org/en-US/docs/Web/JavaScript/Reference/Global_Objects/Boolean",
    "memberof": "src/.external-ecmascript.js",
    "static": true,
    "longname": "src/.external-ecmascript.js~Boolean",
    "access": "public",
    "description": "",
    "builtinExternal": true
  },
  {
    "__docId__": 10,
    "kind": "external",
    "name": "boolean",
    "externalLink": "https://developer.mozilla.org/en-US/docs/Web/JavaScript/Reference/Global_Objects/Boolean",
    "memberof": "src/.external-ecmascript.js",
    "static": true,
    "longname": "src/.external-ecmascript.js~boolean",
    "access": "public",
    "description": "",
    "builtinExternal": true
  },
  {
    "__docId__": 11,
    "kind": "external",
    "name": "Symbol",
    "externalLink": "https://developer.mozilla.org/en-US/docs/Web/JavaScript/Reference/Global_Objects/Symbol",
    "memberof": "src/.external-ecmascript.js",
    "static": true,
    "longname": "src/.external-ecmascript.js~Symbol",
    "access": "public",
    "description": "",
    "builtinExternal": true
  },
  {
    "__docId__": 12,
    "kind": "external",
    "name": "Error",
    "externalLink": "https://developer.mozilla.org/en-US/docs/Web/JavaScript/Reference/Global_Objects/Error",
    "memberof": "src/.external-ecmascript.js",
    "static": true,
    "longname": "src/.external-ecmascript.js~Error",
    "access": "public",
    "description": "",
    "builtinExternal": true
  },
  {
    "__docId__": 13,
    "kind": "external",
    "name": "EvalError",
    "externalLink": "https://developer.mozilla.org/en-US/docs/Web/JavaScript/Reference/Global_Objects/EvalError",
    "memberof": "src/.external-ecmascript.js",
    "static": true,
    "longname": "src/.external-ecmascript.js~EvalError",
    "access": "public",
    "description": "",
    "builtinExternal": true
  },
  {
    "__docId__": 14,
    "kind": "external",
    "name": "InternalError",
    "externalLink": "https://developer.mozilla.org/en-US/docs/Web/JavaScript/Reference/Global_Objects/InternalError",
    "memberof": "src/.external-ecmascript.js",
    "static": true,
    "longname": "src/.external-ecmascript.js~InternalError",
    "access": "public",
    "description": "",
    "builtinExternal": true
  },
  {
    "__docId__": 15,
    "kind": "external",
    "name": "RangeError",
    "externalLink": "https://developer.mozilla.org/en-US/docs/Web/JavaScript/Reference/Global_Objects/RangeError",
    "memberof": "src/.external-ecmascript.js",
    "static": true,
    "longname": "src/.external-ecmascript.js~RangeError",
    "access": "public",
    "description": "",
    "builtinExternal": true
  },
  {
    "__docId__": 16,
    "kind": "external",
    "name": "ReferenceError",
    "externalLink": "https://developer.mozilla.org/en-US/docs/Web/JavaScript/Reference/Global_Objects/ReferenceError",
    "memberof": "src/.external-ecmascript.js",
    "static": true,
    "longname": "src/.external-ecmascript.js~ReferenceError",
    "access": "public",
    "description": "",
    "builtinExternal": true
  },
  {
    "__docId__": 17,
    "kind": "external",
    "name": "SyntaxError",
    "externalLink": "https://developer.mozilla.org/en-US/docs/Web/JavaScript/Reference/Global_Objects/SyntaxError",
    "memberof": "src/.external-ecmascript.js",
    "static": true,
    "longname": "src/.external-ecmascript.js~SyntaxError",
    "access": "public",
    "description": "",
    "builtinExternal": true
  },
  {
    "__docId__": 18,
    "kind": "external",
    "name": "TypeError",
    "externalLink": "https://developer.mozilla.org/en-US/docs/Web/JavaScript/Reference/Global_Objects/TypeError",
    "memberof": "src/.external-ecmascript.js",
    "static": true,
    "longname": "src/.external-ecmascript.js~TypeError",
    "access": "public",
    "description": "",
    "builtinExternal": true
  },
  {
    "__docId__": 19,
    "kind": "external",
    "name": "URIError",
    "externalLink": "https://developer.mozilla.org/en-US/docs/Web/JavaScript/Reference/Global_Objects/URIError",
    "memberof": "src/.external-ecmascript.js",
    "static": true,
    "longname": "src/.external-ecmascript.js~URIError",
    "access": "public",
    "description": "",
    "builtinExternal": true
  },
  {
    "__docId__": 20,
    "kind": "external",
    "name": "Number",
    "externalLink": "https://developer.mozilla.org/en-US/docs/Web/JavaScript/Reference/Global_Objects/Number",
    "memberof": "src/.external-ecmascript.js",
    "static": true,
    "longname": "src/.external-ecmascript.js~Number",
    "access": "public",
    "description": "",
    "builtinExternal": true
  },
  {
    "__docId__": 21,
    "kind": "external",
    "name": "number",
    "externalLink": "https://developer.mozilla.org/en-US/docs/Web/JavaScript/Reference/Global_Objects/Number",
    "memberof": "src/.external-ecmascript.js",
    "static": true,
    "longname": "src/.external-ecmascript.js~number",
    "access": "public",
    "description": "",
    "builtinExternal": true
  },
  {
    "__docId__": 22,
    "kind": "external",
    "name": "Date",
    "externalLink": "https://developer.mozilla.org/en-US/docs/Web/JavaScript/Reference/Global_Objects/Date",
    "memberof": "src/.external-ecmascript.js",
    "static": true,
    "longname": "src/.external-ecmascript.js~Date",
    "access": "public",
    "description": "",
    "builtinExternal": true
  },
  {
    "__docId__": 23,
    "kind": "external",
    "name": "String",
    "externalLink": "https://developer.mozilla.org/en-US/docs/Web/JavaScript/Reference/Global_Objects/String",
    "memberof": "src/.external-ecmascript.js",
    "static": true,
    "longname": "src/.external-ecmascript.js~String",
    "access": "public",
    "description": "",
    "builtinExternal": true
  },
  {
    "__docId__": 24,
    "kind": "external",
    "name": "string",
    "externalLink": "https://developer.mozilla.org/en-US/docs/Web/JavaScript/Reference/Global_Objects/String",
    "memberof": "src/.external-ecmascript.js",
    "static": true,
    "longname": "src/.external-ecmascript.js~string",
    "access": "public",
    "description": "",
    "builtinExternal": true
  },
  {
    "__docId__": 25,
    "kind": "external",
    "name": "RegExp",
    "externalLink": "https://developer.mozilla.org/en-US/docs/Web/JavaScript/Reference/Global_Objects/RegExp",
    "memberof": "src/.external-ecmascript.js",
    "static": true,
    "longname": "src/.external-ecmascript.js~RegExp",
    "access": "public",
    "description": "",
    "builtinExternal": true
  },
  {
    "__docId__": 26,
    "kind": "external",
    "name": "Array",
    "externalLink": "https://developer.mozilla.org/en-US/docs/Web/JavaScript/Reference/Global_Objects/Array",
    "memberof": "src/.external-ecmascript.js",
    "static": true,
    "longname": "src/.external-ecmascript.js~Array",
    "access": "public",
    "description": "",
    "builtinExternal": true
  },
  {
    "__docId__": 27,
    "kind": "external",
    "name": "Int8Array",
    "externalLink": "https://developer.mozilla.org/en-US/docs/Web/JavaScript/Reference/Global_Objects/Int8Array",
    "memberof": "src/.external-ecmascript.js",
    "static": true,
    "longname": "src/.external-ecmascript.js~Int8Array",
    "access": "public",
    "description": "",
    "builtinExternal": true
  },
  {
    "__docId__": 28,
    "kind": "external",
    "name": "Uint8Array",
    "externalLink": "https://developer.mozilla.org/en-US/docs/Web/JavaScript/Reference/Global_Objects/Uint8Array",
    "memberof": "src/.external-ecmascript.js",
    "static": true,
    "longname": "src/.external-ecmascript.js~Uint8Array",
    "access": "public",
    "description": "",
    "builtinExternal": true
  },
  {
    "__docId__": 29,
    "kind": "external",
    "name": "Uint8ClampedArray",
    "externalLink": "https://developer.mozilla.org/en-US/docs/Web/JavaScript/Reference/Global_Objects/Uint8ClampedArray",
    "memberof": "src/.external-ecmascript.js",
    "static": true,
    "longname": "src/.external-ecmascript.js~Uint8ClampedArray",
    "access": "public",
    "description": "",
    "builtinExternal": true
  },
  {
    "__docId__": 30,
    "kind": "external",
    "name": "Int16Array",
    "externalLink": "https://developer.mozilla.org/en-US/docs/Web/JavaScript/Reference/Global_Objects/Int16Array",
    "memberof": "src/.external-ecmascript.js",
    "static": true,
    "longname": "src/.external-ecmascript.js~Int16Array",
    "access": "public",
    "description": "",
    "builtinExternal": true
  },
  {
    "__docId__": 31,
    "kind": "external",
    "name": "Uint16Array",
    "externalLink": "https://developer.mozilla.org/en-US/docs/Web/JavaScript/Reference/Global_Objects/Uint16Array",
    "memberof": "src/.external-ecmascript.js",
    "static": true,
    "longname": "src/.external-ecmascript.js~Uint16Array",
    "access": "public",
    "description": "",
    "builtinExternal": true
  },
  {
    "__docId__": 32,
    "kind": "external",
    "name": "Int32Array",
    "externalLink": "https://developer.mozilla.org/en-US/docs/Web/JavaScript/Reference/Global_Objects/Int32Array",
    "memberof": "src/.external-ecmascript.js",
    "static": true,
    "longname": "src/.external-ecmascript.js~Int32Array",
    "access": "public",
    "description": "",
    "builtinExternal": true
  },
  {
    "__docId__": 33,
    "kind": "external",
    "name": "Uint32Array",
    "externalLink": "https://developer.mozilla.org/en-US/docs/Web/JavaScript/Reference/Global_Objects/Uint32Array",
    "memberof": "src/.external-ecmascript.js",
    "static": true,
    "longname": "src/.external-ecmascript.js~Uint32Array",
    "access": "public",
    "description": "",
    "builtinExternal": true
  },
  {
    "__docId__": 34,
    "kind": "external",
    "name": "Float32Array",
    "externalLink": "https://developer.mozilla.org/en-US/docs/Web/JavaScript/Reference/Global_Objects/Float32Array",
    "memberof": "src/.external-ecmascript.js",
    "static": true,
    "longname": "src/.external-ecmascript.js~Float32Array",
    "access": "public",
    "description": "",
    "builtinExternal": true
  },
  {
    "__docId__": 35,
    "kind": "external",
    "name": "Float64Array",
    "externalLink": "https://developer.mozilla.org/en-US/docs/Web/JavaScript/Reference/Global_Objects/Float64Array",
    "memberof": "src/.external-ecmascript.js",
    "static": true,
    "longname": "src/.external-ecmascript.js~Float64Array",
    "access": "public",
    "description": "",
    "builtinExternal": true
  },
  {
    "__docId__": 36,
    "kind": "external",
    "name": "Map",
    "externalLink": "https://developer.mozilla.org/en-US/docs/Web/JavaScript/Reference/Global_Objects/Map",
    "memberof": "src/.external-ecmascript.js",
    "static": true,
    "longname": "src/.external-ecmascript.js~Map",
    "access": "public",
    "description": "",
    "builtinExternal": true
  },
  {
    "__docId__": 37,
    "kind": "external",
    "name": "Set",
    "externalLink": "https://developer.mozilla.org/en-US/docs/Web/JavaScript/Reference/Global_Objects/Set",
    "memberof": "src/.external-ecmascript.js",
    "static": true,
    "longname": "src/.external-ecmascript.js~Set",
    "access": "public",
    "description": "",
    "builtinExternal": true
  },
  {
    "__docId__": 38,
    "kind": "external",
    "name": "WeakMap",
    "externalLink": "https://developer.mozilla.org/en-US/docs/Web/JavaScript/Reference/Global_Objects/WeakMap",
    "memberof": "src/.external-ecmascript.js",
    "static": true,
    "longname": "src/.external-ecmascript.js~WeakMap",
    "access": "public",
    "description": "",
    "builtinExternal": true
  },
  {
    "__docId__": 39,
    "kind": "external",
    "name": "WeakSet",
    "externalLink": "https://developer.mozilla.org/en-US/docs/Web/JavaScript/Reference/Global_Objects/WeakSet",
    "memberof": "src/.external-ecmascript.js",
    "static": true,
    "longname": "src/.external-ecmascript.js~WeakSet",
    "access": "public",
    "description": "",
    "builtinExternal": true
  },
  {
    "__docId__": 40,
    "kind": "external",
    "name": "ArrayBuffer",
    "externalLink": "https://developer.mozilla.org/en-US/docs/Web/JavaScript/Reference/Global_Objects/ArrayBuffer",
    "memberof": "src/.external-ecmascript.js",
    "static": true,
    "longname": "src/.external-ecmascript.js~ArrayBuffer",
    "access": "public",
    "description": "",
    "builtinExternal": true
  },
  {
    "__docId__": 41,
    "kind": "external",
    "name": "DataView",
    "externalLink": "https://developer.mozilla.org/en-US/docs/Web/JavaScript/Reference/Global_Objects/DataView",
    "memberof": "src/.external-ecmascript.js",
    "static": true,
    "longname": "src/.external-ecmascript.js~DataView",
    "access": "public",
    "description": "",
    "builtinExternal": true
  },
  {
    "__docId__": 42,
    "kind": "external",
    "name": "JSON",
    "externalLink": "https://developer.mozilla.org/en-US/docs/Web/JavaScript/Reference/Global_Objects/JSON",
    "memberof": "src/.external-ecmascript.js",
    "static": true,
    "longname": "src/.external-ecmascript.js~JSON",
    "access": "public",
    "description": "",
    "builtinExternal": true
  },
  {
    "__docId__": 43,
    "kind": "external",
    "name": "Promise",
    "externalLink": "https://developer.mozilla.org/en-US/docs/Web/JavaScript/Reference/Global_Objects/Promise",
    "memberof": "src/.external-ecmascript.js",
    "static": true,
    "longname": "src/.external-ecmascript.js~Promise",
    "access": "public",
    "description": "",
    "builtinExternal": true
  },
  {
    "__docId__": 44,
    "kind": "external",
    "name": "Generator",
    "externalLink": "https://developer.mozilla.org/en-US/docs/Web/JavaScript/Reference/Global_Objects/Generator",
    "memberof": "src/.external-ecmascript.js",
    "static": true,
    "longname": "src/.external-ecmascript.js~Generator",
    "access": "public",
    "description": "",
    "builtinExternal": true
  },
  {
    "__docId__": 45,
    "kind": "external",
    "name": "GeneratorFunction",
    "externalLink": "https://developer.mozilla.org/en-US/docs/Web/JavaScript/Reference/Global_Objects/GeneratorFunction",
    "memberof": "src/.external-ecmascript.js",
    "static": true,
    "longname": "src/.external-ecmascript.js~GeneratorFunction",
    "access": "public",
    "description": "",
    "builtinExternal": true
  },
  {
    "__docId__": 46,
    "kind": "external",
    "name": "Reflect",
    "externalLink": "https://developer.mozilla.org/en-US/docs/Web/JavaScript/Reference/Global_Objects/Reflect",
    "memberof": "src/.external-ecmascript.js",
    "static": true,
    "longname": "src/.external-ecmascript.js~Reflect",
    "access": "public",
    "description": "",
    "builtinExternal": true
  },
  {
    "__docId__": 47,
    "kind": "external",
    "name": "Proxy",
    "externalLink": "https://developer.mozilla.org/en-US/docs/Web/JavaScript/Reference/Global_Objects/Proxy",
    "memberof": "src/.external-ecmascript.js",
    "static": true,
    "longname": "src/.external-ecmascript.js~Proxy",
    "access": "public",
    "description": "",
    "builtinExternal": true
  },
  {
    "__docId__": 48,
    "kind": "file",
    "name": "src/api/config.js",
    "content": "// Base configuration for each API request to Titan\nmodule.exports.apiConfig = {\n\thostname: 'https://interfaces.titandms.net.au',\n\tport: 8091,\n\tpath: '/api/v1',\n};",
    "static": true,
    "longname": "C:/Users/beau.august/Desktop/projects/titan-osb-backend/src/api/config.js",
    "access": "public",
    "description": null,
    "lineNumber": 1
  },
  {
    "__docId__": 49,
    "kind": "file",
    "name": "src/api/get.js",
    "content": "const querystring = require('querystring');\nconst axios = require('axios');\nconst { apiConfig } = require('./config');\n\n/**\n * Makes a GET request to the Titan DMS API.\n * \n * @function\n * @param {string} endpoint - The endpoint that we want to hit\n * @param {string} token - The token we need to authorize our request\n * @param {Object} query - An optional query object, containing querystring keys and values\n * @return {Promise<Object>} - Returns a promise with either data retrieved, or an error object\n */\nmodule.exports = (endpoint, token, query = false) => new Promise((resolve, reject) => {\n\t// Create endpoint path using config\n\tlet path = `${apiConfig.hostname}:${apiConfig.port}${apiConfig.path}${endpoint}`;\n\t// Are there any query parameters? Turn it into a querystring and append to our path\n\tif (query) path += `?${querystring.stringify(query)}`;\n\n\t// Make a requet to the Titan API, passing our JWT\n\taxios.get(path, {\n\t\theaders: {\n\t\t\t'content-type': 'application/json',\n\t\t\t'Access-Control-Origin': '*',\n\t\t\t'Authorization': token,\n\t\t},\n\t})\n\t\t.then(res => resolve(res.data))\n\t\t.catch(err => reject(err));\n});",
    "static": true,
    "longname": "C:/Users/beau.august/Desktop/projects/titan-osb-backend/src/api/get.js",
    "access": "public",
    "description": null,
    "lineNumber": 1
  },
  {
    "__docId__": 50,
    "kind": "variable",
    "name": "querystring",
    "memberof": "src/api/get.js",
    "static": true,
    "longname": "src/api/get.js~querystring",
    "access": "public",
    "export": false,
    "importPath": "titan-osb-backend/src/api/get.js",
    "importStyle": null,
    "description": null,
    "lineNumber": 1,
    "undocument": true,
    "type": {
      "types": [
        "*"
      ]
    },
    "ignore": true
  },
  {
    "__docId__": 51,
    "kind": "variable",
    "name": "axios",
    "memberof": "src/api/get.js",
    "static": true,
    "longname": "src/api/get.js~axios",
    "access": "public",
    "export": false,
    "importPath": "titan-osb-backend/src/api/get.js",
    "importStyle": null,
    "description": null,
    "lineNumber": 2,
    "undocument": true,
    "type": {
      "types": [
        "*"
      ]
    },
    "ignore": true
  },
  {
    "__docId__": 52,
    "kind": "variable",
    "name": "apiConfig",
    "memberof": "src/api/get.js",
    "static": true,
    "longname": "src/api/get.js~apiConfig",
    "access": "public",
    "export": false,
    "importPath": "titan-osb-backend/src/api/get.js",
    "importStyle": null,
    "description": null,
    "lineNumber": 3,
    "undocument": true,
    "type": {
      "types": [
        "*"
      ]
    },
    "ignore": true
  },
  {
    "__docId__": 53,
    "kind": "file",
    "name": "src/api/logon.js",
    "content": "const axios = require('axios');\nconst {\n\tapiConfig\n} = require('./config');\n\n/**\n * Logs in to the Titan DMS API, and returns a token.\n */\nmodule.exports = () => new Promise((resolve, reject) => {\n\n\tconst data = JSON.stringify({\n\t\t'DealerId': process.env.DEALER_ID,\n\t\t'EmpId': process.env.EMPLOYEE_ID,\n\t\t'Password': process.env.EMPLOYEE_PASSWORD,\n\t\t'ProviderId': process.env.PROVIDER_ID\n\t});\n\n\taxios.post(`${apiConfig.hostname}:${apiConfig.port}${apiConfig.path}/Logon`, data, {\n\t\theaders: {\n\t\t\t'content-type': 'application/json',\n\t\t\t'Content-Length': data.length,\n\t\t},\n\t})\n\t\t.then(res => resolve(res.data.Ticket))\n\t\t.catch((err) => {\n\t\t\tconsole.log(err.message);\n\t\t\treject(err);\n\t\t});\n});",
    "static": true,
    "longname": "C:/Users/beau.august/Desktop/projects/titan-osb-backend/src/api/logon.js",
    "access": "public",
    "description": null,
    "lineNumber": 1
  },
  {
    "__docId__": 54,
    "kind": "variable",
    "name": "axios",
    "memberof": "src/api/logon.js",
    "static": true,
    "longname": "src/api/logon.js~axios",
    "access": "public",
    "export": false,
    "importPath": "titan-osb-backend/src/api/logon.js",
    "importStyle": null,
    "description": null,
    "lineNumber": 1,
    "undocument": true,
    "type": {
      "types": [
        "*"
      ]
    },
    "ignore": true
  },
  {
    "__docId__": 55,
    "kind": "variable",
    "name": "apiConfig",
    "memberof": "src/api/logon.js",
    "static": true,
    "longname": "src/api/logon.js~apiConfig",
    "access": "public",
    "export": false,
    "importPath": "titan-osb-backend/src/api/logon.js",
    "importStyle": null,
    "description": null,
    "lineNumber": 2,
    "undocument": true,
    "type": {
      "types": [
        "*"
      ]
    },
    "ignore": true
  },
  {
    "__docId__": 56,
    "kind": "file",
    "name": "src/endpoints/get.js",
    "content": "const sendResponse = require('../functions/sendResponse');\nconst get = require('../api/get');\n\nmodule.exports.handler = (event, context, callback) => {\n\tconst {\n\t\trequestContext,\n\t\tpath,\n\t\tqueryStringParameters,\n\t} = event;\n\n\tget(path, requestContext.authorizer.token, queryStringParameters)\n\t\t.then(res => sendResponse(res.response.status, res.response.statusMessage, callback))\n\t\t.catch((err) => sendResponse(err.response.status, {\n\t\t\tMessage: err.response.statusText,\n\t\t}, callback));\n};",
    "static": true,
    "longname": "C:/Users/beau.august/Desktop/projects/titan-osb-backend/src/endpoints/get.js",
    "access": "public",
    "description": null,
    "lineNumber": 1
  },
  {
    "__docId__": 57,
    "kind": "variable",
    "name": "sendResponse",
    "memberof": "src/endpoints/get.js",
    "static": true,
    "longname": "src/endpoints/get.js~sendResponse",
    "access": "public",
    "export": false,
    "importPath": "titan-osb-backend/src/endpoints/get.js",
    "importStyle": null,
    "description": null,
    "lineNumber": 1,
    "undocument": true,
    "type": {
      "types": [
        "*"
      ]
    },
    "ignore": true
  },
  {
    "__docId__": 58,
    "kind": "variable",
    "name": "get",
    "memberof": "src/endpoints/get.js",
    "static": true,
    "longname": "src/endpoints/get.js~get",
    "access": "public",
    "export": false,
    "importPath": "titan-osb-backend/src/endpoints/get.js",
    "importStyle": null,
    "description": null,
    "lineNumber": 2,
    "undocument": true,
    "type": {
      "types": [
        "*"
      ]
    },
    "ignore": true
  },
  {
    "__docId__": 59,
    "kind": "file",
    "name": "src/endpoints/vehicles.js",
    "content": "const jwt = require('jsonwebtoken');\r\nconst logon = require('../api/logon');\r\nconst get = require('../api/get');\r\nconst sendResponse = require('../functions/sendResponse');\r\n\r\nmodule.exports.get = (event, context, callback) => {\r\n\t// set variables\r\n\tconst {\r\n\t\tqueryStringParameters: query\r\n\t} = event;\r\n\tlet authorizationKey;\r\n\r\n\tlogon() // call logon to retrieve ticket from TitanDMS Logon API\r\n\t\t.then(authTicket => {\r\n\t\t\tauthorizationKey = authTicket;\r\n\t\t\treturn get('/Vehicles', `custom ${authTicket}`, query); // call global \"get\" function with endpoint / ticket (auth) / request url paramaters\r\n\t\t})\r\n\t\t.then(res => {\r\n\t\t\t// vehicle data returned from TitanDMS API\r\n\t\t\tconst data = {\r\n\t\t\t\tvehicles: res,\r\n\t\t\t};\r\n\t\t\tif (!res.length) return sendResponse(200, data, callback); // send back to client empty response as no vehicles found\r\n\t\t\tjwt.sign({\r\n\t\t\t\tkey: authorizationKey\r\n\t\t\t}, process.env.SECRET_KEY, {\r\n\t\t\t\texpiresIn: 86400,\r\n\t\t\t}, (err, token) => {\r\n\t\t\t\tif (err) return sendResponse(400, err, callback);\r\n\t\t\t\tif (res.length) data.token = token;\r\n\t\t\t\treturn sendResponse(200, data, callback);\r\n\t\t\t});\r\n\t\t})\r\n\t\t.catch(err => sendResponse(400, err, callback));\r\n};",
    "static": true,
    "longname": "C:/Users/beau.august/Desktop/projects/titan-osb-backend/src/endpoints/vehicles.js",
    "access": "public",
    "description": null,
    "lineNumber": 1
  },
  {
    "__docId__": 60,
    "kind": "variable",
    "name": "jwt",
    "memberof": "src/endpoints/vehicles.js",
    "static": true,
    "longname": "src/endpoints/vehicles.js~jwt",
    "access": "public",
    "export": false,
    "importPath": "titan-osb-backend/src/endpoints/vehicles.js",
    "importStyle": null,
    "description": null,
    "lineNumber": 1,
    "undocument": true,
    "type": {
      "types": [
        "*"
      ]
    },
    "ignore": true
  },
  {
    "__docId__": 61,
    "kind": "variable",
    "name": "logon",
    "memberof": "src/endpoints/vehicles.js",
    "static": true,
    "longname": "src/endpoints/vehicles.js~logon",
    "access": "public",
    "export": false,
    "importPath": "titan-osb-backend/src/endpoints/vehicles.js",
    "importStyle": null,
    "description": null,
    "lineNumber": 2,
    "undocument": true,
    "type": {
      "types": [
        "*"
      ]
    },
    "ignore": true
  },
  {
    "__docId__": 62,
    "kind": "variable",
    "name": "get",
    "memberof": "src/endpoints/vehicles.js",
    "static": true,
    "longname": "src/endpoints/vehicles.js~get",
    "access": "public",
    "export": false,
    "importPath": "titan-osb-backend/src/endpoints/vehicles.js",
    "importStyle": null,
    "description": null,
    "lineNumber": 3,
    "undocument": true,
    "type": {
      "types": [
        "*"
      ]
    },
    "ignore": true
  },
  {
    "__docId__": 63,
    "kind": "variable",
    "name": "sendResponse",
    "memberof": "src/endpoints/vehicles.js",
    "static": true,
    "longname": "src/endpoints/vehicles.js~sendResponse",
    "access": "public",
    "export": false,
    "importPath": "titan-osb-backend/src/endpoints/vehicles.js",
    "importStyle": null,
    "description": null,
    "lineNumber": 4,
    "undocument": true,
    "type": {
      "types": [
        "*"
      ]
    },
    "ignore": true
  },
  {
    "__docId__": 64,
    "kind": "file",
    "name": "src/functions/auth.js",
    "content": "const jwt = require('jsonwebtoken');\r\n\r\nconst generatePolicy = (principalId, Effect, Resource, context) => ({\r\n\tprincipalId,\r\n\tpolicyDocument: {\r\n\t\tVersion: '2012-10-17',\r\n\t\tStatement: [{\r\n\t\t\tAction: 'execute-api:Invoke',\r\n\t\t\tEffect,\r\n\t\t\tResource,\r\n\t\t}, ],\r\n\t},\r\n\tcontext,\r\n});\r\n\r\nmodule.exports.handler = (event, context, callback) => {\r\n\tconst {\r\n\t\tmethodArn,\r\n\t\tauthorizationToken\r\n\t} = event;\r\n\tconst token = authorizationToken.replace(/Bearer /g, '');\r\n\tconst secret = process.env.SECRET_KEY;\r\n\tconst config = {\r\n\t\tmaxAge: 86400, // 24 hours\r\n\t};\r\n\r\n\t// verify the token with publicKey and config and return proper AWS policy document\r\n\tjwt.verify(token, secret, config, (err, verified) => {\r\n\t\tif (err) {\r\n\t\t\tconsole.log('JWT Error', err, err.stack);\r\n\t\t\treturn callback('Server Error');\r\n\t\t} else {\r\n\t\t\tcallback(null, generatePolicy('user', 'Allow', methodArn, {\r\n\t\t\t\ttoken: `custom ${verified.key}`,\r\n\t\t\t}));\r\n\t\t}\r\n\t});\r\n};",
    "static": true,
    "longname": "C:/Users/beau.august/Desktop/projects/titan-osb-backend/src/functions/auth.js",
    "access": "public",
    "description": null,
    "lineNumber": 1
  },
  {
    "__docId__": 65,
    "kind": "variable",
    "name": "jwt",
    "memberof": "src/functions/auth.js",
    "static": true,
    "longname": "src/functions/auth.js~jwt",
    "access": "public",
    "export": false,
    "importPath": "titan-osb-backend/src/functions/auth.js",
    "importStyle": null,
    "description": null,
    "lineNumber": 1,
    "undocument": true,
    "type": {
      "types": [
        "*"
      ]
    },
    "ignore": true
  },
  {
    "__docId__": 66,
    "kind": "function",
    "name": "generatePolicy",
    "memberof": "src/functions/auth.js",
    "generator": false,
    "async": false,
    "static": true,
    "longname": "src/functions/auth.js~generatePolicy",
    "access": "public",
    "export": false,
    "importPath": "titan-osb-backend/src/functions/auth.js",
    "importStyle": null,
    "description": null,
    "lineNumber": 3,
    "undocument": true,
    "params": [
      {
        "name": "principalId",
        "types": [
          "*"
        ]
      },
      {
        "name": "Effect",
        "types": [
          "*"
        ]
      },
      {
        "name": "Resource",
        "types": [
          "*"
        ]
      },
      {
        "name": "context",
        "types": [
          "*"
        ]
      }
    ],
    "return": null,
    "ignore": true
  },
  {
    "__docId__": 67,
    "kind": "file",
    "name": "src/functions/sendResponse.js",
    "content": "module.exports = (statusCode, body, callback) => {\n\tconst response = {\n\t\tstatusCode,\n\t\theaders: {\n\t\t\t'Access-Control-Allow-Origin': '*',\n\t\t},\n\t\tbody,\n\t};\n\tresponse.body = JSON.stringify(response.body);\n\n\tcallback(null, response);\n};",
    "static": true,
    "longname": "C:/Users/beau.august/Desktop/projects/titan-osb-backend/src/functions/sendResponse.js",
    "access": "public",
    "description": null,
    "lineNumber": 1
  },
  {
    "kind": "index",
    "content": "",
    "longname": "C:\\Users\\beau.august\\Desktop\\projects\\titan-osb-backend\\README.md",
    "name": "./README.md",
    "static": true,
    "access": "public"
  },
  {
    "kind": "packageJSON",
    "content": "{\r\n  \"name\": \"titan-osb-backend\",\r\n  \"version\": \"1.0.0\",\r\n  \"description\": \"Serverless backend for the Titan OSB widget\",\r\n  \"main\": \"handler.js\",\r\n  \"scripts\": {\r\n    \"docs\": \"./node_modules/.bin/esdoc\",\r\n    \"test\": \"jest --config test/unit/jest.config.js\"\r\n  },\r\n  \"author\": \"Beau August\",\r\n  \"license\": \"ISC\",\r\n  \"devDependencies\": {\r\n    \"axios-mock-adapter\": \"^1.15.0\",\r\n    \"esdoc\": \"^1.1.0\",\r\n    \"esdoc-standard-plugin\": \"^1.0.0\",\r\n    \"jest\": \"^23.3.0\"\r\n  },\r\n  \"dependencies\": {\r\n    \"axios\": \"^0.18.0\",\r\n    \"jsonwebtoken\": \"^8.3.0\"\r\n  }\r\n}\r\n",
    "longname": "C:\\Users\\beau.august\\Desktop\\projects\\titan-osb-backend\\package.json",
    "name": "package.json",
    "static": true,
    "access": "public"
  }
]